{
  "index" : {

    "footer" : "Case__fly. Copyright @ 2016",
    "header" : "Case__fly"

  },
  "clockitems" : {
    "item1": {
      "title": "Экспертная деятельность",
      "angl": "0",
      "class": "clock__item--1 text--center",
      "href": "images/icons/clock-1.png",
      "back": "images/background.png",
      "backmb": "images/background-mb.jpg"
    },
    "item2": {
      "title": "Комплексное проектирование",
      "angl": "36",
      "class": "clock__item--2",
      "href": "images/icons/clock-2.png",
      "back": "images/background.jpg",
      "backmb": "images/background-mb.jpg"
    },
    "item3": {
      "title": "Экологические исследования",
      "angl": "72",
      "class": "clock__item--3",
      "href": "images/icons/clock-3.png",
      "back": "images/background.png",
      "backmb": "images/background-mb.jpg"
    },
    "item4": {
      "title": "Лесоустройство",
      "angl": "108",
      "class": "clock__item--4",
      "href": "images/icons/clock-4.png",
      "back": "images/background.jpg",
      "backmb": "images/background-mb.jpg"
    },
    "item5": {
      "title": "Лабораторные исследования",
      "angl": "144",
      "class": "clock__item--5",
      "href": "images/icons/clock-5.png",
      "back": "images/background.png",
      "backmb": "images/background-mb.jpg"
    },
    "item6": {
      "title": "Инженерные изыскания",
      "angl": "180",
      "class": "clock__item--6 text--center",
      "href": "images/icons/clock-6.png",
      "back": "images/background.jpg",
      "backmb": "images/background-mb.jpg"
    },
    "item7": {
      "title": "Геодезия и картография",
      "angl": "216",
      "class": "clock__item--7 text--right clock__item--last",
      "href": "images/icons/clock-7.png",
      "back": "images/background.png",
      "backmb": "images/background-mb.jpg"
    },
    "item8": {
      "title": "Землестроительные и кадастровые работы",
      "angl": "252",
      "class": "clock__item--8 text--right clock__item--last",
      "href": "images/icons/clock-8.png",
      "back": "images/background.jpg",
      "backmb": "images/background-mb.jpg"
    },
    "item9": {
      "title": "Археологические исследования",
      "angl": "288",
      "class": "clock__item--9 text--right clock__item--last",
      "href": "images/icons/clock-9.png",
      "back": "images/background.png",
      "backmb": "images/background-mb.jpg"
    },
    "item10": {
      "title": "Лазерное сканирование",
      "angl": "324",
      "class": "clock__item--10 text--right clock__item--last",
      "href": "images/icons/clock-10.png",
      "back": "images/background.jpg",
      "backmb": "images/background-mb.jpg"
    }
  }
}
